method, weight_matrix_size, elapse_time, accuracy, number_of_procs
allreduce_ring_async, 235200, 27.852199,11.3%, 128, 
allreduce_ring, 235200, 26.217934,11.3%, 128, 
allreduce, 235200, 16.527570,11.3%, 128, 
allreduce_ring_async, 470400, 32.190446,36.5%, 128, 
allreduce_ring, 470400, 30.044355,36.5%, 128, 
allreduce, 470400, 22.496156,36.2%, 128, 
allreduce_ring_async, 705600, 34.963034,59.7%, 128, 
allreduce_ring, 705600, 32.999015,59.7%, 128, 
allreduce, 705600, 25.523298,50.5%, 128, 
